{
  "coverage": "95.83%",
  "expectCount": 96,
  "actualCount": 92,
  "files": {
    "public/toolkit/baseToolkit.js": {
      "expectCount": 20,
      "actualCount": 20,
      "undocumentLines": []
    },
    "public/toolkit/combinedStorageToolkitExtention.js": {
      "expectCount": 17,
      "actualCount": 16,
      "undocumentLines": [
        22
      ]
    },
    "public/toolkit/contentToolkitExtention.js": {
      "expectCount": 5,
      "actualCount": 5,
      "undocumentLines": []
    },
    "public/toolkit/endlessScrollToolkitExtention.js": {
      "expectCount": 9,
      "actualCount": 9,
      "undocumentLines": []
    },
    "public/toolkit/eventToolkitExtention.js": {
      "expectCount": 6,
      "actualCount": 5,
      "undocumentLines": [
        16
      ]
    },
    "public/toolkit/formToolkitExtention.js": {
      "expectCount": 8,
      "actualCount": 8,
      "undocumentLines": []
    },
    "public/toolkit/httpConnectionsToolkitExtention.js": {
      "expectCount": 5,
      "actualCount": 5,
      "undocumentLines": []
    },
    "public/toolkit/moodralToolkitExtention.js": {
      "expectCount": 13,
      "actualCount": 12,
      "undocumentLines": [
        35
      ]
    },
    "public/toolkit/styleToolkitExtention.js": {
      "expectCount": 6,
      "actualCount": 6,
      "undocumentLines": []
    },
    "public/toolkit/urlToolkitExtention.js": {
      "expectCount": 7,
      "actualCount": 6,
      "undocumentLines": [
        38
      ]
    }
  }
}